prac4 – Practical Assignments
…
Question 1:

#Display the flights dataset in an alternative format to simply printing it 
data1<-flights
class(data1)

[1] "tbl_df"     "tbl"        "data.frame"

data1 <- as_tibble(data1)
data1

# A tibble: 336,776 × 19
    year month   day dep_time sched_dep_time dep_delay arr_time sched_arr_time
   <int> <int> <int>    <int>          <int>     <dbl>    <int>          <int>
 1  2013     1     1      517            515         2      830            819
 2  2013     1     1      533            529         4      850            830
 3  2013     1     1      542            540         2      923            850
 4  2013     1     1      544            545        -1     1004           1022
 5  2013     1     1      554            600        -6      812            837
 6  2013     1     1      554            558        -4      740            728
 7  2013     1     1      555            600        -5      913            854
 8  2013     1     1      557            600        -3      709            723
 9  2013     1     1      557            600        -3      838            846
10  2013     1     1      558            600        -2      753            745
# ℹ 336,766 more rows
# ℹ 11 more variables: arr_delay <dbl>, carrier <chr>, flight <int>,
#   tailnum <chr>, origin <chr>, dest <chr>, air_time <dbl>, distance <dbl>,
#   hour <dbl>, minute <dbl>, time_hour <dttm>
…
Question 6:

#Identify routes flown by more than one airline
routes_multi <- flights %>%
  group_by(origin, dest) %>%
  summarise(
    n_airlines = n_distinct(carrier),
    .groups = "drop"
  ) %>%
  filter(n_airlines > 1)

routes_multi

# A tibble: 128 × 3
   origin dest  n_airlines
   <chr>  <chr>      <int>
 1 EWR    ATL            4
 2 EWR    AUS            2
 3 EWR    BDL            2
 4 EWR    BNA            2
 5 EWR    BOS            3
 6 EWR    BWI            2
 7 EWR    CHS            2
 8 EWR    CLE            2
 9 EWR    CLT            3
10 EWR    CVG            2
# ℹ 118 more rows

#Average arrival delay per airline on these routes
route_airline_delays <- flights %>%
  semi_join(routes_multi, by = c("origin", "dest")) %>%
  group_by(origin, dest, carrier) %>%
  summarise(
    mean_arr_delay = mean(arr_delay, na.rm = TRUE),
    .groups = "drop"
  )

route_airline_delays

# A tibble: 343 × 4
   origin dest  carrier mean_arr_delay
   <chr>  <chr> <chr>            <dbl>
 1 EWR    ATL   9E               -6.25
 2 EWR    ATL   DL               10.0 
 3 EWR    ATL   EV               19.5 
 4 EWR    ATL   UA               10.5 
 5 EWR    AUS   UA                4.28
 6 EWR    AUS   WN              -11.2 
 7 EWR    BDL   EV                6.78
 8 EWR    BDL   UA               22.6 
 9 EWR    BNA   EV               17.7 
10 EWR    BNA   WN               -2.13
# ℹ 333 more rows

#Find the airline names
route_airline_delays_named <- route_airline_delays %>%
  left_join(airlines, by = "carrier")

route_airline_delays_named

# A tibble: 343 × 5
   origin dest  carrier mean_arr_delay name                    
   <chr>  <chr> <chr>            <dbl> <chr>                   
 1 EWR    ATL   9E               -6.25 Endeavor Air Inc.       
 2 EWR    ATL   DL               10.0  Delta Air Lines Inc.    
 3 EWR    ATL   EV               19.5  ExpressJet Airlines Inc.
 4 EWR    ATL   UA               10.5  United Air Lines Inc.   
 5 EWR    AUS   UA                4.28 United Air Lines Inc.   
 6 EWR    AUS   WN              -11.2  Southwest Airlines Co.  
 7 EWR    BDL   EV                6.78 ExpressJet Airlines Inc.
 8 EWR    BDL   UA               22.6  United Air Lines Inc.   
 9 EWR    BNA   EV               17.7  ExpressJet Airlines Inc.
10 EWR    BNA   WN               -2.13 Southwest Airlines Co.  
# ℹ 333 more rows
#Identify best and worst airline per route
route_best_worst <- route_airline_delays_named %>%
  group_by(origin, dest) %>%
  summarise(
    best_airline  = name[which.min(mean_arr_delay)],
    best_delay    = min(mean_arr_delay),
    worst_airline = name[which.max(mean_arr_delay)],
    worst_delay   = max(mean_arr_delay),
    diff_delay    = worst_delay - best_delay,
    .groups = "drop"
  )

route_best_worst

# A tibble: 128 × 7
   origin dest  best_airline     best_delay worst_airline worst_delay diff_delay
   <chr>  <chr> <chr>                 <dbl> <chr>               <dbl>      <dbl>
 1 EWR    ATL   Endeavor Air In…     -6.25  ExpressJet A…       19.5       25.8 
 2 EWR    AUS   Southwest Airli…    -11.2   United Air L…        4.28      15.5 
 3 EWR    BDL   ExpressJet Airl…      6.78  United Air L…       22.6       15.8 
 4 EWR    BNA   Southwest Airli…     -2.13  ExpressJet A…       17.7       19.8 
 5 EWR    BOS   ExpressJet Airl…     -4.01  JetBlue Airw…        6.87      10.9 
 6 EWR    BWI   Southwest Airli…      5.95  ExpressJet A…       20.1       14.1 
 7 EWR    CHS   United Air Line…    -14     ExpressJet A…       16.2       30.2 
 8 EWR    CLE   ExpressJet Airl…     -3.71  United Air L…        5.97       9.68
 9 EWR    CLT   US Airways Inc.       0.920 ExpressJet A…       20.5       19.6 
10 EWR    CVG   Endeavor Air In…      1.40  ExpressJet A…       21.2       19.8 
# ℹ 118 more rows
…
